{
    "docs": [
        {
            "location": "/", 
            "text": "Ini API Me Wash", 
            "title": "Home"
        }, 
        {
            "location": "/auth/", 
            "text": "This API uses OAuth2 Authorization Framework and follows the \nstandards\n.\n\n\nSign In\n\n\nEndpoint:\n\n\nPOST https://localhost:4003/api/v1/signin\n\n\n\n\nRequest body example:\n\n\n{\n    \ngrant_type\n: \npassword\n,\n    \nusername\n: \nalimustofa1@gmail.com\n,\n    \npassword\n: \nalimus\n,\n    \nclient_id\n: \nclientId\n,\n    \nclient_secret\n: \nclientSecret\n\n}\n\n\n\n\nSuccessful response body example:\n\n\n{\n    \naccess_token\n: \n128_bytes_length_token\n,\n    \nrefresh_token\n: \n128_bytes_length_refresh_token\n,\n    \nexpiredin\n: \n2016-11-26T10:42:34.411Z\n,\n    \nuser\n: \nuserId\n,\n    \ntoken_type\n: \nBearer\n\n}\n\n\n\n\nCreate Client\n\n\nEndpoint:\n\n\nPOST https://localhost:4003/api/v1/oauth/client\n\n\n\n\nRequest body example:\n\n\n{\n    \nname\n: \nios\n,\n    \ndescription\n: \nios device\n\n}\n\n\n\n\nSuccessful response body example:\n\n\n{\n  \nmeta\n: {\n    \ncode\n: 201,\n    \nmessage\n: \nData Client Add\n\n  },\n  \ndata\n: {\n    \n__v\n: 0,\n    \ncreatedTime\n: \n2016-05-26T17:05:47.000Z\n,\n    \nupdatedTime\n: \n2016-05-26T17:05:47.000Z\n,\n    \nname\n: \nios\n,\n    \n_id\n: \n5746d506cd2365083317b94a\n,\n    \ntrusted\n: true,\n    \nscope\n: [\n      \ndefault_read\n,\n      \ndefault_write\n\n    ],\n    \ndescription\n: \nios device\n,\n    \nsecret\n: \nsecretId\n\n  }\n}\n\n\n\n\nError response is described on \nthis page\n.", 
            "title": "Auth"
        }, 
        {
            "location": "/auth/#sign-in", 
            "text": "Endpoint:  POST https://localhost:4003/api/v1/signin  Request body example:  {\n     grant_type :  password ,\n     username :  alimustofa1@gmail.com ,\n     password :  alimus ,\n     client_id :  clientId ,\n     client_secret :  clientSecret \n}  Successful response body example:  {\n     access_token :  128_bytes_length_token ,\n     refresh_token :  128_bytes_length_refresh_token ,\n     expiredin :  2016-11-26T10:42:34.411Z ,\n     user :  userId ,\n     token_type :  Bearer \n}", 
            "title": "Sign In"
        }, 
        {
            "location": "/auth/#create-client", 
            "text": "Endpoint:  POST https://localhost:4003/api/v1/oauth/client  Request body example:  {\n     name :  ios ,\n     description :  ios device \n}  Successful response body example:  {\n   meta : {\n     code : 201,\n     message :  Data Client Add \n  },\n   data : {\n     __v : 0,\n     createdTime :  2016-05-26T17:05:47.000Z ,\n     updatedTime :  2016-05-26T17:05:47.000Z ,\n     name :  ios ,\n     _id :  5746d506cd2365083317b94a ,\n     trusted : true,\n     scope : [\n       default_read ,\n       default_write \n    ],\n     description :  ios device ,\n     secret :  secretId \n  }\n}  Error response is described on  this page .", 
            "title": "Create Client"
        }, 
        {
            "location": "/user/", 
            "text": "Sign Up\n\n\nEndpoint:\n\n\nPOST https://localhost:4003/api/v1/signup\n\n\n\n\nRequest body example:\n\n\n{\n    \nemail\n: \nalimustofa1@gmail.com\n,\n    \npassword\n: \nalimus\n,\n    \nphone\n: \n081328989878\n,\n    \nfullname\n: \nalimus\n\n}\n\n\n\n\nError response body example, when email is exist:\n\n\n{\n  \nmeta\n: {\n    \ncode\n: 422,\n    \nmessage\n: \nEmail already exist\n\n  }\n}\n\n\n\n\nSuccessful response body example:\n\n\n{\n  \nmeta\n: {\n    \ncode\n: 201,\n    \nmessage\n: \nUser created\n\n  },\n  \ndata\n: {\n    \n__v\n: 0,\n    \ncreatedTime\n: \n2016-05-26T19:05:54.000Z\n,\n    \nupdatedTime\n: \n2016-05-26T19:05:54.000Z\n,\n    \nemail\n: \nalimust@gmail.com\n,\n    \nphone\n: \n081328989878\n,\n    \n_id\n: \n5746ea68cd2365083317b94b\n,\n    \nactive\n: false,\n    \nrole\n: [\n      \nuser\n\n    ],\n    \nfullname\n: \nalimus\n\n  }\n}\n\n\n\n\nUser Profile\n\n\nEndpoint:\n\n\nGET https://localhost:4003/api/v1/user?access_token=ACCESS_TOKEN\n\n\n\n\nSuccessful response body example:\n\n\n{\n  \nmeta\n: {\n    \ncode\n: 200,\n    \nmessage\n: \nOK\n\n  },\n  \ndata\n: {\n    \n_id\n: \n57448c186fc3a9c4266ae67c\n,\n    \nemail\n: \nalimustofa1@gmail.com\n,\n    \nphone\n: \n+985786786\n,\n    \n__v\n: 0,\n    \ncreatedTime\n: \n2016-05-26T13:05:34.000Z\n,\n    \nupdatedTime\n: \n2016-05-26T14:05:50.000Z\n,\n    \nactive\n: true,\n    \nrole\n: [\n      \nuser\n\n    ],\n    \nfullname\n: \nAkun test\n\n  }\n}\n\n\n\n\nUpdate Profile\n\n\nUpdateAble Fields\n : phone, fullname, position\n\n\nEndpoint:\n\n\nPUT https://localhost:4003/api/v1/user?access_token=ACCESS_TOKEN\n\n\n\n\nRequest body example:\n\n\n{\n    \nphone\n: \n087876765654\n,\n    \nfullname\n: \nUserName\n\n}\n\n\n\n\nSuccessful response body example:\n\n\n{\n  \nmeta\n: {\n    \ncode\n: 200,\n    \nmessage\n: \nProfile updated\n\n  },\n  \ndata\n: {\n    \n_id\n: \n57448c186fc3a9c4266ae67c\n,\n    \nemail\n: \nalimustofa1@gmail.com\n,\n    \nphone\n: \n087876765654\n,\n    \n__v\n: 0,\n    \ncreatedTime\n: \n2016-05-26T13:05:34.000Z\n,\n    \nupdatedTime\n: \n2016-05-26T14:05:50.000Z\n,\n    \nactive\n: true,\n    \nrole\n: [\n      \nuser\n\n    ],\n    \nfullname\n: \nUserName\n\n  }\n}\n\n\n\n\nUpdate Password\n\n\nEndpoint:\n\n\nPUT https://localhost:4003/api/v1/user/password?access_token=ACCESS_TOKEN\n\n\n\n\nRequest body example:\n\n\n{\n    \npassword\n: \n090\n,\n    \nconfirmPassword\n: \n090\n\n}\n\n\n\n\nError response, when \npassword\n \n \nconfirmPassword\n not match\n\n\n{\n  \nmeta\n: {\n    \ncode\n: 500,\n    \nmessage\n: \nPassword not match\n\n  }\n}\n\n\n\n\nSuccessful response body example:\n\n\n{\n  \nmeta\n: {\n    \ncode\n: 200,\n    \nmessage\n: \nPassword updated\n\n  }\n}", 
            "title": "User"
        }, 
        {
            "location": "/user/#sign-up", 
            "text": "Endpoint:  POST https://localhost:4003/api/v1/signup  Request body example:  {\n     email :  alimustofa1@gmail.com ,\n     password :  alimus ,\n     phone :  081328989878 ,\n     fullname :  alimus \n}  Error response body example, when email is exist:  {\n   meta : {\n     code : 422,\n     message :  Email already exist \n  }\n}  Successful response body example:  {\n   meta : {\n     code : 201,\n     message :  User created \n  },\n   data : {\n     __v : 0,\n     createdTime :  2016-05-26T19:05:54.000Z ,\n     updatedTime :  2016-05-26T19:05:54.000Z ,\n     email :  alimust@gmail.com ,\n     phone :  081328989878 ,\n     _id :  5746ea68cd2365083317b94b ,\n     active : false,\n     role : [\n       user \n    ],\n     fullname :  alimus \n  }\n}", 
            "title": "Sign Up"
        }, 
        {
            "location": "/user/#user-profile", 
            "text": "Endpoint:  GET https://localhost:4003/api/v1/user?access_token=ACCESS_TOKEN  Successful response body example:  {\n   meta : {\n     code : 200,\n     message :  OK \n  },\n   data : {\n     _id :  57448c186fc3a9c4266ae67c ,\n     email :  alimustofa1@gmail.com ,\n     phone :  +985786786 ,\n     __v : 0,\n     createdTime :  2016-05-26T13:05:34.000Z ,\n     updatedTime :  2016-05-26T14:05:50.000Z ,\n     active : true,\n     role : [\n       user \n    ],\n     fullname :  Akun test \n  }\n}", 
            "title": "User Profile"
        }, 
        {
            "location": "/user/#update-profile", 
            "text": "UpdateAble Fields  : phone, fullname, position  Endpoint:  PUT https://localhost:4003/api/v1/user?access_token=ACCESS_TOKEN  Request body example:  {\n     phone :  087876765654 ,\n     fullname :  UserName \n}  Successful response body example:  {\n   meta : {\n     code : 200,\n     message :  Profile updated \n  },\n   data : {\n     _id :  57448c186fc3a9c4266ae67c ,\n     email :  alimustofa1@gmail.com ,\n     phone :  087876765654 ,\n     __v : 0,\n     createdTime :  2016-05-26T13:05:34.000Z ,\n     updatedTime :  2016-05-26T14:05:50.000Z ,\n     active : true,\n     role : [\n       user \n    ],\n     fullname :  UserName \n  }\n}", 
            "title": "Update Profile"
        }, 
        {
            "location": "/user/#update-password", 
            "text": "Endpoint:  PUT https://localhost:4003/api/v1/user/password?access_token=ACCESS_TOKEN  Request body example:  {\n     password :  090 ,\n     confirmPassword :  090 \n}  Error response, when  password     confirmPassword  not match  {\n   meta : {\n     code : 500,\n     message :  Password not match \n  }\n}  Successful response body example:  {\n   meta : {\n     code : 200,\n     message :  Password updated \n  }\n}", 
            "title": "Update Password"
        }, 
        {
            "location": "/absen/", 
            "text": "Add Absen\n\n\nEndpoint:\n\n\nPOST localhost:4003/api/v1/absen?access_token=ACCESS_TOKEN\n\n\n\n\nSuccessful response body example:\n\n\n{\n  \nmeta\n: {\n    \ncode\n: 200,\n    \nmessage\n: \nAbsen added\n\n  },\n  \ndata\n: {\n    \n__v\n: 0,\n    \ncreatedTime\n: \n2016-05-30T17:05:32.000Z\n,\n    \nupdatedTime\n: \n2016-05-30T17:05:32.000Z\n,\n    \nuserId\n: \n57448c186fc3a9c4266ae67c\n,\n    \n_id\n: \n574c189f885fab141fd24d29\n\n  }\n}\n\n\n\n\nGet Absen\n\n\nEndpoint:\n\n\nGET localhost:4003/api/v1/absen?access_token=ACCESS_TOKEN\n\n\n\n\nSuccessful response body example:\n\n\n{\n  \nmeta\n: {\n    \ncode\n: 200,\n    \nmessage\n: \nUser absen\n\n  },\n  \ndata\n: [\n    {\n      \n_id\n: \n57469a8b53f5d3b010114cdb\n,\n      \ncreatedTime\n: \n2016-05-26T13:05:57.000Z\n,\n      \nupdatedTime\n: \n2016-05-26T13:05:57.000Z\n,\n      \nuserId\n: \n57448c186fc3a9c4266ae67c\n,\n      \n__v\n: 0\n    },\n    {\n      \n_id\n: \n57469aa353f5d3b010114cdc\n,\n      \ncreatedTime\n: \n2016-05-26T13:05:11.000Z\n,\n      \nupdatedTime\n: \n2016-05-26T13:05:11.000Z\n,\n      \nuserId\n: \n57448c186fc3a9c4266ae67c\n,\n      \n__v\n: 0\n    },\n  ]\n}\n\n\n\n\nGet Last Absen\n\n\nEndpoint:\n\n\nGET localhost:4003/api/v1/absen?last=yes\naccess_token=ACCESS_TOKEN\n\n\n\n\nSuccessful response body example:\n\n\n{\n  \nmeta\n: {\n    \ncode\n: 200,\n    \nmessage\n: \nUser absen\n\n  },\n  \ndata\n: [\n    {\n      \n_id\n: \n574c189f885fab141fd24d29\n,\n      \ncreatedTime\n: \n2016-05-30T17:05:32.000Z\n,\n      \nupdatedTime\n: \n2016-05-30T17:05:32.000Z\n,\n      \nuserId\n: \n57448c186fc3a9c4266ae67c\n,\n      \n__v\n: 0\n    }\n  ]\n}\n\n\n\n\nGet All User Absen\n\n\nEndpoint:\n\n\nGET localhost:4003/api/v1/absen/allList?access_token=ACCESS_TOKEN\n\n\n\n\nSuccessful response body example:\n\n\n{\n  \nmeta\n: {\n    \ncode\n: 200,\n    \nmessage\n: \nUser absen\n\n  },\n  \ndata\n: [\n    {\n      \n_id\n: \n57469a8b53f5d3b010114cdb\n,\n      \ncreatedTime\n: \n2016-05-26T13:05:57.000Z\n,\n      \nupdatedTime\n: \n2016-05-26T13:05:57.000Z\n,\n      \nuserId\n: \n57448c186fc3a9c4266ae67c\n,\n      \n__v\n: 0\n    },\n    {\n      \n_id\n: \n57469aa353f5d3b010114cdc\n,\n      \ncreatedTime\n: \n2016-05-26T13:05:11.000Z\n,\n      \nupdatedTime\n: \n2016-05-26T13:05:11.000Z\n,\n      \nuserId\n: \n57448c186fc3a9c4266ae67c\n,\n      \n__v\n: 0\n    },\n  ]\n}", 
            "title": "Absen"
        }, 
        {
            "location": "/absen/#add-absen", 
            "text": "Endpoint:  POST localhost:4003/api/v1/absen?access_token=ACCESS_TOKEN  Successful response body example:  {\n   meta : {\n     code : 200,\n     message :  Absen added \n  },\n   data : {\n     __v : 0,\n     createdTime :  2016-05-30T17:05:32.000Z ,\n     updatedTime :  2016-05-30T17:05:32.000Z ,\n     userId :  57448c186fc3a9c4266ae67c ,\n     _id :  574c189f885fab141fd24d29 \n  }\n}", 
            "title": "Add Absen"
        }, 
        {
            "location": "/absen/#get-absen", 
            "text": "Endpoint:  GET localhost:4003/api/v1/absen?access_token=ACCESS_TOKEN  Successful response body example:  {\n   meta : {\n     code : 200,\n     message :  User absen \n  },\n   data : [\n    {\n       _id :  57469a8b53f5d3b010114cdb ,\n       createdTime :  2016-05-26T13:05:57.000Z ,\n       updatedTime :  2016-05-26T13:05:57.000Z ,\n       userId :  57448c186fc3a9c4266ae67c ,\n       __v : 0\n    },\n    {\n       _id :  57469aa353f5d3b010114cdc ,\n       createdTime :  2016-05-26T13:05:11.000Z ,\n       updatedTime :  2016-05-26T13:05:11.000Z ,\n       userId :  57448c186fc3a9c4266ae67c ,\n       __v : 0\n    },\n  ]\n}", 
            "title": "Get Absen"
        }, 
        {
            "location": "/absen/#get-last-absen", 
            "text": "Endpoint:  GET localhost:4003/api/v1/absen?last=yes access_token=ACCESS_TOKEN  Successful response body example:  {\n   meta : {\n     code : 200,\n     message :  User absen \n  },\n   data : [\n    {\n       _id :  574c189f885fab141fd24d29 ,\n       createdTime :  2016-05-30T17:05:32.000Z ,\n       updatedTime :  2016-05-30T17:05:32.000Z ,\n       userId :  57448c186fc3a9c4266ae67c ,\n       __v : 0\n    }\n  ]\n}", 
            "title": "Get Last Absen"
        }, 
        {
            "location": "/absen/#get-all-user-absen", 
            "text": "Endpoint:  GET localhost:4003/api/v1/absen/allList?access_token=ACCESS_TOKEN  Successful response body example:  {\n   meta : {\n     code : 200,\n     message :  User absen \n  },\n   data : [\n    {\n       _id :  57469a8b53f5d3b010114cdb ,\n       createdTime :  2016-05-26T13:05:57.000Z ,\n       updatedTime :  2016-05-26T13:05:57.000Z ,\n       userId :  57448c186fc3a9c4266ae67c ,\n       __v : 0\n    },\n    {\n       _id :  57469aa353f5d3b010114cdc ,\n       createdTime :  2016-05-26T13:05:11.000Z ,\n       updatedTime :  2016-05-26T13:05:11.000Z ,\n       userId :  57448c186fc3a9c4266ae67c ,\n       __v : 0\n    },\n  ]\n}", 
            "title": "Get All User Absen"
        }, 
        {
            "location": "/service/", 
            "text": "Add Service\n\n\nEndpoint:\n\n\nPOST https://localhost:4003/api/v1/service?access_token=ACCESS_TOKEN\n\n\n\n\nRequest body example:\n\n\n{\n    \nname\n: \nservice 1\n,\n    \nharga\n: 12000\n}\n\n\n\n\nSuccessful response body example:\n\n\n{\n  \nmeta\n: {\n    \ncode\n: 200,\n    \nmessage\n: \nService added\n\n  },\n  \ndata\n: {\n    \n__v\n: 0,\n    \ncreatedTime\n: \n2016-05-26T19:05:48.000Z\n,\n    \nupdatedTime\n: \n2016-05-26T19:05:48.000Z\n,\n    \nname\n: \nservice1\n,\n    \nharga\n: 12000,\n    \n_id\n: \n5746edb7cd2365083317b94c\n\n  }\n}\n\n\n\n\nGet Service\n\n\nEndpoint:\n\n\nGET https://localhost:4003/api/v1/service?access_token=ACCESS_TOKEN\norderBy=columnName\norderType=orderType\n\n\n\n\norderBy\n : Default by name\n\norderType\n (asc/desc) : Default by asc\n\n\nSuccessful response body example:\n\n\n{\n  \nmeta\n: {\n    \ncode\n: 200,\n    \nmessage\n: \nServices list\n\n  },\n  \ndata\n: [\n    {\n      \n_id\n: \n57456c4ed585b7f032605ca7\n,\n      \ncreatedTime\n: \n2016-05-25T16:05:27.000Z\n,\n      \nupdatedTime\n: \n2016-05-25T16:05:27.000Z\n,\n      \nname\n: \nCuci2\n,\n      \nharga\n: 15000,\n      \n__v\n: 0\n    },\n    {\n      \n_id\n: \n5746edb7cd2365083317b94c\n,\n      \ncreatedTime\n: \n2016-05-26T19:05:48.000Z\n,\n      \nupdatedTime\n: \n2016-05-26T19:05:48.000Z\n,\n      \nname\n: \nservice1\n,\n      \nharga\n: 12000,\n      \n__v\n: 0\n    }\n  ]\n}\n\n\n\n\nUpdate Service\n\n\nUpdateAble Fields\n : name, harga\n\n\nEndpoint:\n\n\nPUT https://localhost:4003/api/v1/service/:id?access_token=ACCESS_TOKEN\n\n\n\n\nRequest body example:\n\n\n{\n    \nname\n: \nservice2\n,\n    \nharga\n: 13000\n}\n\n\n\n\nSuccessful response body example:\n\n\n{\n  \nmeta\n: {\n    \ncode\n: 200,\n    \nmessage\n: \nService updated\n\n  },\n  \ndata\n: {\n    \n_id\n: \n5746edb7cd2365083317b94c\n,\n    \ncreatedTime\n: \n2016-05-26T19:05:48.000Z\n,\n    \nupdatedTime\n: \n2016-05-26T19:05:14.000Z\n,\n    \nname\n: \nservice2\n,\n    \nharga\n: 13000,\n    \n__v\n: 0\n  }\n}\n\n\n\n\nDelete Service\n\n\nEndpoint:\n\n\nDELETE https://localhost:4003/api/v1/service/:id?access_token=ACCESS_TOKEN\n\n\n\n\nSuccessful response body example:\n\n\n{\n  \nmeta\n: {\n    \ncode\n: 200,\n    \nmessage\n: \nOK\n\n  },\n  \ndata\n: \nService removed\n\n}", 
            "title": "Service"
        }, 
        {
            "location": "/service/#add-service", 
            "text": "Endpoint:  POST https://localhost:4003/api/v1/service?access_token=ACCESS_TOKEN  Request body example:  {\n     name :  service 1 ,\n     harga : 12000\n}  Successful response body example:  {\n   meta : {\n     code : 200,\n     message :  Service added \n  },\n   data : {\n     __v : 0,\n     createdTime :  2016-05-26T19:05:48.000Z ,\n     updatedTime :  2016-05-26T19:05:48.000Z ,\n     name :  service1 ,\n     harga : 12000,\n     _id :  5746edb7cd2365083317b94c \n  }\n}", 
            "title": "Add Service"
        }, 
        {
            "location": "/service/#get-service", 
            "text": "Endpoint:  GET https://localhost:4003/api/v1/service?access_token=ACCESS_TOKEN orderBy=columnName orderType=orderType  orderBy  : Default by name orderType  (asc/desc) : Default by asc  Successful response body example:  {\n   meta : {\n     code : 200,\n     message :  Services list \n  },\n   data : [\n    {\n       _id :  57456c4ed585b7f032605ca7 ,\n       createdTime :  2016-05-25T16:05:27.000Z ,\n       updatedTime :  2016-05-25T16:05:27.000Z ,\n       name :  Cuci2 ,\n       harga : 15000,\n       __v : 0\n    },\n    {\n       _id :  5746edb7cd2365083317b94c ,\n       createdTime :  2016-05-26T19:05:48.000Z ,\n       updatedTime :  2016-05-26T19:05:48.000Z ,\n       name :  service1 ,\n       harga : 12000,\n       __v : 0\n    }\n  ]\n}", 
            "title": "Get Service"
        }, 
        {
            "location": "/service/#update-service", 
            "text": "UpdateAble Fields  : name, harga  Endpoint:  PUT https://localhost:4003/api/v1/service/:id?access_token=ACCESS_TOKEN  Request body example:  {\n     name :  service2 ,\n     harga : 13000\n}  Successful response body example:  {\n   meta : {\n     code : 200,\n     message :  Service updated \n  },\n   data : {\n     _id :  5746edb7cd2365083317b94c ,\n     createdTime :  2016-05-26T19:05:48.000Z ,\n     updatedTime :  2016-05-26T19:05:14.000Z ,\n     name :  service2 ,\n     harga : 13000,\n     __v : 0\n  }\n}", 
            "title": "Update Service"
        }, 
        {
            "location": "/service/#delete-service", 
            "text": "Endpoint:  DELETE https://localhost:4003/api/v1/service/:id?access_token=ACCESS_TOKEN  Successful response body example:  {\n   meta : {\n     code : 200,\n     message :  OK \n  },\n   data :  Service removed \n}", 
            "title": "Delete Service"
        }, 
        {
            "location": "/vehicle/", 
            "text": "Add Vehicle\n\n\nEndpoint:\n\n\nPOST https://localhost:4003/api/v1/vehicle?access_token=ACCESS_TOKEN\n\n\n\n\nRequest body example:\n\n\n{\n    \nname\n: \nvehicle 1\n,\n    \nharga\n: 12000\n}\n\n\n\n\nSuccessful response body example:\n\n\n{\n  \nmeta\n: {\n    \ncode\n: 200,\n    \nmessage\n: \nVehicle added\n\n  },\n  \ndata\n: {\n    \n__v\n: 0,\n    \ncreatedTime\n: \n2016-05-26T19:05:48.000Z\n,\n    \nupdatedTime\n: \n2016-05-26T19:05:48.000Z\n,\n    \nname\n: \nvehicle 1\n,\n    \nharga\n: 12000,\n    \n_id\n: \n5746edb7cd2365083317b94c\n\n  }\n}\n\n\n\n\nGet Vehicle\n\n\nEndpoint:\n\n\nGET https://localhost:4003/api/v1/vehicle?access_token=ACCESS_TOKEN\norderBy=columnName\norderType=orderType\n\n\n\n\norderBy\n : Default by name\n\norderType\n (asc/desc) : Default by asc\n\n\nSuccessful response body example:\n\n\n{\n  \nmeta\n: {\n    \ncode\n: 200,\n    \nmessage\n: \nVehicle list\n\n  },\n  \ndata\n: [\n    {\n      \n_id\n: \n57456c4ed585b7f032605ca7\n,\n      \ncreatedTime\n: \n2016-05-25T16:05:27.000Z\n,\n      \nupdatedTime\n: \n2016-05-25T16:05:27.000Z\n,\n      \nname\n: \nvehicle 1\n,\n      \nharga\n: 12000,\n      \n__v\n: 0\n    },\n    {\n      \n_id\n: \n5746edb7cd2365083317b94c\n,\n      \ncreatedTime\n: \n2016-05-26T19:05:48.000Z\n,\n      \nupdatedTime\n: \n2016-05-26T19:05:48.000Z\n,\n      \nname\n: \nvehicle 2\n,\n      \nharga\n: 13000,\n      \n__v\n: 0\n    }\n  ]\n}\n\n\n\n\nUpdate Vehicle\n\n\nUpdateAble Fields\n : name, harga\n\n\nEndpoint:\n\n\nPUT https://localhost:4003/api/v1/vehicle/:id?access_token=ACCESS_TOKEN\n\n\n\n\nRequest body example:\n\n\n{\n    \nname\n: \nvehicle 1 update\n,\n    \nharga\n: 15000\n}\n\n\n\n\nSuccessful response body example:\n\n\n{\n  \nmeta\n: {\n    \ncode\n: 200,\n    \nmessage\n: \nVehicle updated\n\n  },\n  \ndata\n: {\n    \n_id\n: \n5746edb7cd2365083317b94c\n,\n    \ncreatedTime\n: \n2016-05-26T19:05:48.000Z\n,\n    \nupdatedTime\n: \n2016-05-26T19:05:14.000Z\n,\n    \nname\n: \nvehicle 1 update\n,\n    \nharga\n: 15000,\n    \n__v\n: 0\n  }\n}\n\n\n\n\nDelete Vehicle\n\n\nEndpoint:\n\n\nDELETE https://localhost:4003/api/v1/vehicle/:id?access_token=ACCESS_TOKEN\n\n\n\n\nSuccessful response body example:\n\n\n{\n  \nmeta\n: {\n    \ncode\n: 200,\n    \nmessage\n: \nOK\n\n  },\n  \ndata\n: \nVehicle removed\n\n}", 
            "title": "Vehicle"
        }, 
        {
            "location": "/vehicle/#add-vehicle", 
            "text": "Endpoint:  POST https://localhost:4003/api/v1/vehicle?access_token=ACCESS_TOKEN  Request body example:  {\n     name :  vehicle 1 ,\n     harga : 12000\n}  Successful response body example:  {\n   meta : {\n     code : 200,\n     message :  Vehicle added \n  },\n   data : {\n     __v : 0,\n     createdTime :  2016-05-26T19:05:48.000Z ,\n     updatedTime :  2016-05-26T19:05:48.000Z ,\n     name :  vehicle 1 ,\n     harga : 12000,\n     _id :  5746edb7cd2365083317b94c \n  }\n}", 
            "title": "Add Vehicle"
        }, 
        {
            "location": "/vehicle/#get-vehicle", 
            "text": "Endpoint:  GET https://localhost:4003/api/v1/vehicle?access_token=ACCESS_TOKEN orderBy=columnName orderType=orderType  orderBy  : Default by name orderType  (asc/desc) : Default by asc  Successful response body example:  {\n   meta : {\n     code : 200,\n     message :  Vehicle list \n  },\n   data : [\n    {\n       _id :  57456c4ed585b7f032605ca7 ,\n       createdTime :  2016-05-25T16:05:27.000Z ,\n       updatedTime :  2016-05-25T16:05:27.000Z ,\n       name :  vehicle 1 ,\n       harga : 12000,\n       __v : 0\n    },\n    {\n       _id :  5746edb7cd2365083317b94c ,\n       createdTime :  2016-05-26T19:05:48.000Z ,\n       updatedTime :  2016-05-26T19:05:48.000Z ,\n       name :  vehicle 2 ,\n       harga : 13000,\n       __v : 0\n    }\n  ]\n}", 
            "title": "Get Vehicle"
        }, 
        {
            "location": "/vehicle/#update-vehicle", 
            "text": "UpdateAble Fields  : name, harga  Endpoint:  PUT https://localhost:4003/api/v1/vehicle/:id?access_token=ACCESS_TOKEN  Request body example:  {\n     name :  vehicle 1 update ,\n     harga : 15000\n}  Successful response body example:  {\n   meta : {\n     code : 200,\n     message :  Vehicle updated \n  },\n   data : {\n     _id :  5746edb7cd2365083317b94c ,\n     createdTime :  2016-05-26T19:05:48.000Z ,\n     updatedTime :  2016-05-26T19:05:14.000Z ,\n     name :  vehicle 1 update ,\n     harga : 15000,\n     __v : 0\n  }\n}", 
            "title": "Update Vehicle"
        }, 
        {
            "location": "/vehicle/#delete-vehicle", 
            "text": "Endpoint:  DELETE https://localhost:4003/api/v1/vehicle/:id?access_token=ACCESS_TOKEN  Successful response body example:  {\n   meta : {\n     code : 200,\n     message :  OK \n  },\n   data :  Vehicle removed \n}", 
            "title": "Delete Vehicle"
        }, 
        {
            "location": "/cabang/", 
            "text": "Add Cabang\n\n\nEndpoint:\n\n\nPOST https://localhost:4003/api/v1/cabang?access_token=ACCESS_TOKEN\n\n\n\n\nRequest body example:\n\n\n{\n    \nname\n: \ncabang 1\n,\n    \nposition\n: {\n        \nlat\n: 10.00989,\n        \nlong\n: 9.99087\n    }\n}\n\n\n\n\nSuccessful response body example:\n\n\n{\n  \nmeta\n: {\n    \ncode\n: 200,\n    \nmessage\n: \nCabang added\n\n  },\n  \ndata\n: {\n    \n__v\n: 0,\n    \ncreatedTime\n: \n2016-05-27T11:05:05.000Z\n,\n    \nupdatedTime\n: \n2016-05-27T11:05:05.000Z\n,\n    \nname\n: \ncabang 1\n,\n    \n_id\n: \n5747c9accd2365083317b94e\n,\n    \nposition\n: {\n      \nlat\n: 10.00989,\n      \nlong\n: 9.99087\n    },\n    \nlistAdmin\n: []\n  }\n}\n\n\n\n\nGet Cabang\n\n\nEndpoint:\n\n\nGET https://localhost:4003/api/v1/cabang?access_token=ACCESS_TOKEN\norderBy=columnName\norderType=orderType\n\n\n\n\norderBy\n : Default by name\n\norderType\n (asc/desc) : Default by asc\n\n\nSuccessful response body example:\n\n\n{\n  \nmeta\n: {\n    \ncode\n: 200,\n    \nmessage\n: \nCabang list\n\n  },\n  \ndata\n: [\n    {\n      \n_id\n: \n5747c9accd2365083317b94e\n,\n      \ncreatedTime\n: \n2016-05-27T11:05:05.000Z\n,\n      \nupdatedTime\n: \n2016-05-27T11:05:05.000Z\n,\n      \nname\n: \ncabang 1\n,\n      \n__v\n: 0,\n      \nposition\n: {\n        \nlat\n: 10.00989,\n        \nlong\n: 9.99087\n      },\n      \nlistAdmin\n: []\n    },\n    {\n      \n_id\n: \n5745887af32ac9842b04d09c\n,\n      \ncreatedTime\n: \n2016-05-25T18:05:51.000Z\n,\n      \nupdatedTime\n: \n2016-05-25T18:05:51.000Z\n,\n      \nname\n: \nnew Cabang\n,\n      \n__v\n: 0,\n      \nposition\n: {\n        \nlat\n: 10,\n        \nlong\n: 20\n      },\n      \nlistAdmin\n: [\n        {\n          \nuserId\n: \n57448c6d6fc3a9c4266ae67f\n,\n          \n_id\n: \n574591c1a2e600a01c6e75d1\n\n        }\n      ]\n    }\n  ]\n}\n\n\n\n\nUpdate Cabang\n\n\nUpdateAble Fields\n : name, position\n\n\nEndpoint:\n\n\nPUT https://localhost:4003/api/v1/cabang/:id?access_token=ACCESS_TOKEN\n\n\n\n\nRequest body example:\n\n\n{\n    \nname\n: \ncabang 11\n,\n    \nposition\n: {\n        \nlat\n: 1,\n        \nlong\n: 9\n    }\n}\n\n\n\n\nSuccessful response body example:\n\n\n{\n  \nmeta\n: {\n    \ncode\n: 200,\n    \nmessage\n: \nCabang updated\n\n  },\n  \ndata\n: {\n    \ncreatedTime\n: \n2016-05-27T11:05:00.000Z\n,\n    \nupdatedTime\n: \n2016-05-27T11:05:00.000Z\n,\n    \n_id\n: \n5747c992cd2365083317b94d\n,\n    \nname\n: \ncabang 11\n,\n    \n__v\n: 0,\n    \nposition\n: {\n      \nlat\n: 1,\n      \nlong\n: 9\n    },\n    \nlistAdmin\n: []\n  }\n}\n\n\n\n\nDelete Cabang\n\n\nEndpoint:\n\n\nDELETE https://localhost:4003/api/v1/cabang/:id?access_token=ACCESS_TOKEN\n\n\n\n\nSuccessful response body example:\n\n\n{\n  \nmeta\n: {\n    \ncode\n: 200,\n    \nmessage\n: \nOK\n\n  },\n  \ndata\n: \nCabang removed\n\n}\n\n\n\n\nAdd User In Cabang\n\n\nEndpoint:\n\n\nPOST https://localhost:4003/api/v1/cabang/user/:id?access_token=ACCESS_TOKEN\n\n\n\n\nRequest body example:\n\n\n{\n    \nuserId\n: \nuserId\n\n}\n\n\n\n\nError response, if userId is exist:\n\n\n{\n  \nmeta\n: {\n    \ncode\n: 500,\n    \nmessage\n: \nUser is exist\n\n  }\n}\n\n\n\n\nSuccessful response body example:\n\n\n{\n  \nmeta\n: {\n    \ncode\n: 200,\n    \nmessage\n: \nUserId cabang added\n\n  },\n  \ndata\n: {\n    \n_id\n: \n5747c992cd2365083317b94d\n,\n    \nname\n: \ncabang 11\n,\n    \n__v\n: 0,\n    \ncreatedTime\n: \n2016-05-27T11:05:00.000Z\n,\n    \nupdatedTime\n: \n2016-05-27T11:05:00.000Z\n,\n    \nposition\n: {\n      \nlat\n: 1,\n      \nlong\n: 9\n    },\n    \nlistAdmin\n: [\n      {\n        \nuserId\n: \n57448c186fc3a9c4266ae67c\n,\n        \n_id\n: \n5747ce8acd2365083317b94f\n\n      }\n    ]\n  }\n}\n\n\n\n\nRemove User In Cabang\n\n\nEndpoint:\n\n\nDELETE https://localhost:4003/api/v1/cabang/user/:id?access_token=ACCESS_TOKEN\n\n\n\n\nRequest body example:\n\n\n{\n    \nuserId\n: \nuserId\n\n}\n\n\n\n\nSuccessful response body example:\n\n\n{\n  \nmeta\n: {\n    \ncode\n: 200,\n    \nmessage\n: \nUserId cabang removed\n\n  },\n  \ndata\n: {\n    \n_id\n: \n5747c992cd2365083317b94d\n,\n    \nname\n: \ncabang 11\n,\n    \n__v\n: 0,\n    \ncreatedTime\n: \n2016-05-27T11:05:00.000Z\n,\n    \nupdatedTime\n: \n2016-05-27T11:05:00.000Z\n,\n    \nposition\n: {\n      \nlat\n: 1,\n      \nlong\n: 9\n    },\n    \nlistAdmin\n: [\n      {\n        \nuserId\n: \n57448c186fc3a9c4266ae67c\n,\n        \n_id\n: \n5747ce8acd2365083317b94f\n\n      }\n    ]\n  }\n}", 
            "title": "Cabang"
        }, 
        {
            "location": "/cabang/#add-cabang", 
            "text": "Endpoint:  POST https://localhost:4003/api/v1/cabang?access_token=ACCESS_TOKEN  Request body example:  {\n     name :  cabang 1 ,\n     position : {\n         lat : 10.00989,\n         long : 9.99087\n    }\n}  Successful response body example:  {\n   meta : {\n     code : 200,\n     message :  Cabang added \n  },\n   data : {\n     __v : 0,\n     createdTime :  2016-05-27T11:05:05.000Z ,\n     updatedTime :  2016-05-27T11:05:05.000Z ,\n     name :  cabang 1 ,\n     _id :  5747c9accd2365083317b94e ,\n     position : {\n       lat : 10.00989,\n       long : 9.99087\n    },\n     listAdmin : []\n  }\n}", 
            "title": "Add Cabang"
        }, 
        {
            "location": "/cabang/#get-cabang", 
            "text": "Endpoint:  GET https://localhost:4003/api/v1/cabang?access_token=ACCESS_TOKEN orderBy=columnName orderType=orderType  orderBy  : Default by name orderType  (asc/desc) : Default by asc  Successful response body example:  {\n   meta : {\n     code : 200,\n     message :  Cabang list \n  },\n   data : [\n    {\n       _id :  5747c9accd2365083317b94e ,\n       createdTime :  2016-05-27T11:05:05.000Z ,\n       updatedTime :  2016-05-27T11:05:05.000Z ,\n       name :  cabang 1 ,\n       __v : 0,\n       position : {\n         lat : 10.00989,\n         long : 9.99087\n      },\n       listAdmin : []\n    },\n    {\n       _id :  5745887af32ac9842b04d09c ,\n       createdTime :  2016-05-25T18:05:51.000Z ,\n       updatedTime :  2016-05-25T18:05:51.000Z ,\n       name :  new Cabang ,\n       __v : 0,\n       position : {\n         lat : 10,\n         long : 20\n      },\n       listAdmin : [\n        {\n           userId :  57448c6d6fc3a9c4266ae67f ,\n           _id :  574591c1a2e600a01c6e75d1 \n        }\n      ]\n    }\n  ]\n}", 
            "title": "Get Cabang"
        }, 
        {
            "location": "/cabang/#update-cabang", 
            "text": "UpdateAble Fields  : name, position  Endpoint:  PUT https://localhost:4003/api/v1/cabang/:id?access_token=ACCESS_TOKEN  Request body example:  {\n     name :  cabang 11 ,\n     position : {\n         lat : 1,\n         long : 9\n    }\n}  Successful response body example:  {\n   meta : {\n     code : 200,\n     message :  Cabang updated \n  },\n   data : {\n     createdTime :  2016-05-27T11:05:00.000Z ,\n     updatedTime :  2016-05-27T11:05:00.000Z ,\n     _id :  5747c992cd2365083317b94d ,\n     name :  cabang 11 ,\n     __v : 0,\n     position : {\n       lat : 1,\n       long : 9\n    },\n     listAdmin : []\n  }\n}", 
            "title": "Update Cabang"
        }, 
        {
            "location": "/cabang/#delete-cabang", 
            "text": "Endpoint:  DELETE https://localhost:4003/api/v1/cabang/:id?access_token=ACCESS_TOKEN  Successful response body example:  {\n   meta : {\n     code : 200,\n     message :  OK \n  },\n   data :  Cabang removed \n}", 
            "title": "Delete Cabang"
        }, 
        {
            "location": "/cabang/#add-user-in-cabang", 
            "text": "Endpoint:  POST https://localhost:4003/api/v1/cabang/user/:id?access_token=ACCESS_TOKEN  Request body example:  {\n     userId :  userId \n}  Error response, if userId is exist:  {\n   meta : {\n     code : 500,\n     message :  User is exist \n  }\n}  Successful response body example:  {\n   meta : {\n     code : 200,\n     message :  UserId cabang added \n  },\n   data : {\n     _id :  5747c992cd2365083317b94d ,\n     name :  cabang 11 ,\n     __v : 0,\n     createdTime :  2016-05-27T11:05:00.000Z ,\n     updatedTime :  2016-05-27T11:05:00.000Z ,\n     position : {\n       lat : 1,\n       long : 9\n    },\n     listAdmin : [\n      {\n         userId :  57448c186fc3a9c4266ae67c ,\n         _id :  5747ce8acd2365083317b94f \n      }\n    ]\n  }\n}", 
            "title": "Add User In Cabang"
        }, 
        {
            "location": "/cabang/#remove-user-in-cabang", 
            "text": "Endpoint:  DELETE https://localhost:4003/api/v1/cabang/user/:id?access_token=ACCESS_TOKEN  Request body example:  {\n     userId :  userId \n}  Successful response body example:  {\n   meta : {\n     code : 200,\n     message :  UserId cabang removed \n  },\n   data : {\n     _id :  5747c992cd2365083317b94d ,\n     name :  cabang 11 ,\n     __v : 0,\n     createdTime :  2016-05-27T11:05:00.000Z ,\n     updatedTime :  2016-05-27T11:05:00.000Z ,\n     position : {\n       lat : 1,\n       long : 9\n    },\n     listAdmin : [\n      {\n         userId :  57448c186fc3a9c4266ae67c ,\n         _id :  5747ce8acd2365083317b94f \n      }\n    ]\n  }\n}", 
            "title": "Remove User In Cabang"
        }, 
        {
            "location": "/order/", 
            "text": "Order Resource\n\n\nEndpoint:\n\n\nGET localhost:4003/api/v1/order/resource?access_token=ACCESS_TOKEN\n\n\n\n\nSuccessful response body example:\n\n\n{\n  \nmeta\n: {\n    \ncode\n: 200,\n    \nmessage\n: \nOrder Resource\n\n  },\n  \ndata\n: {\n    \nvehicle\n: [\n      {\n        \n_id\n: \n57456ff36483a5e42cf6435f\n,\n        \ncreatedTime\n: \n2016-05-25T16:05:15.000Z\n,\n        \nupdatedTime\n: \n2016-05-25T16:05:15.000Z\n,\n        \nname\n: \nJeep1\n,\n        \nharga\n: 12000,\n        \n__v\n: 0\n      }\n    ],\n    \nservice\n: [\n      {\n        \n_id\n: \n5747f6b7574ed62834ad0c82\n,\n        \ncreatedTime\n: \n2016-05-27T14:05:26.000Z\n,\n        \nupdatedTime\n: \n2016-05-27T14:05:26.000Z\n,\n        \nname\n: \nCuci2\n,\n        \nharga\n: 15000,\n        \n__v\n: 0\n      },\n      {\n        \n_id\n: \n5747f5b9574ed62834ad0c81\n,\n        \nname\n: \nService1\n,\n        \nharga\n: 10000,\n        \n__v\n: 0\n      },\n      {\n        \n_id\n: \n574be53e9dd6245421640a85\n,\n        \ncreatedTime\n: \n2016-05-30T14:05:29.000Z\n,\n        \nupdatedTime\n: \n2016-05-30T14:05:29.000Z\n,\n        \nname\n: \njeep2\n,\n        \nharga\n: 1000,\n        \n__v\n: 0\n      }\n    ]\n  }\n}\n\n\n\n\nAdd Order\n\n\nEndpoint:\n\n\nPOST localhost:4003/api/v1/absen?access_token=ACCESS_TOKEN\n\n\n\n\nRequest body example:\n\n\n{\n    \nvehicle\n: {\n        \nvehicleId\n: \n57456ff36483a5e42cf6435f\n,\n        \nname\n: \nJeep1\n,\n        \nharga\n: 12000\n    },\n    \nservice\n: [\n        {\n            \nserviceId\n: \n5747f6b7574ed62834ad0c82\n,\n            \nname\n: \nCuci2\n,\n            \nharga\n: 15000\n        },\n        {\n            \nserviceId\n: \n5747f5b9574ed62834ad0c81\n,\n            \nname\n: \nService1\n,\n            \nharga\n: 10000\n        }\n    ],\n    \nposition\n: {\n        \nlat\n: 1000,\n        \nlong\n: 5000\n    }\n}\n\n\n\n\nSuccessful response body example:\n\n\n{\n  \nmeta\n: {\n    \ncode\n: 200,\n    \nmessage\n: \nOrder saved\n\n  },\n  \ndata\n: {\n    \n__v\n: 0,\n    \nuserId\n: \n57448c186fc3a9c4266ae67c\n,\n    \n_id\n: \n574c1ec6885fab141fd24d2a\n,\n    \nposition\n: {\n      \nlat\n: 1000,\n      \nlong\n: 5000\n    },\n    \nhargaTotal\n: 41000,\n    \nhargaService\n: 25000,\n    \nhargaJarak\n: 4000,\n    \npayment\n: \nnotPay\n,\n    \nstatus\n: \npending\n,\n    \nservice\n: [\n      {\n        \nserviceId\n: \n5747f6b7574ed62834ad0c82\n,\n        \nname\n: \nCuci2\n,\n        \nharga\n: 15000,\n        \n_id\n: \n574c1ec6885fab141fd24d2c\n\n      },\n      {\n        \nserviceId\n: \n5747f5b9574ed62834ad0c81\n,\n        \nname\n: \nService1\n,\n        \nharga\n: 10000,\n        \n_id\n: \n574c1ec6885fab141fd24d2b\n\n      }\n    ],\n    \nvehicle\n: {\n      \nvehicleId\n: \n57456ff36483a5e42cf6435f\n,\n      \nname\n: \nJeep1\n,\n      \nharga\n: 12000\n    }\n  }\n}\n\n\n\n\nGet Order\n\n\nEndpoint:\n\n\nGET localhost:4003/api/v1/order\naccess_token=ACCESS_TOKEN\n\n\n\n\nRequest Query : \n\nlimit\n : number,\n\nskip\n : number,\n\nstatus\n : status\n\n\nSuccessful response body example:\n\n\n{\n  \nmeta\n: {\n    \ncode\n: 200,\n    \nmessage\n: \nUser Order\n\n  },\n  \ndata\n: [\n    {\n      \n_id\n: \n574ab8dd8c0480541c5a57c0\n,\n      \ncreatedTime\n: \n2016-05-29T16:05:10.000Z\n,\n      \nupdatedTime\n: \n2016-05-29T16:05:10.000Z\n,\n      \nuserId\n: \n57448c186fc3a9c4266ae67c\n,\n      \n__v\n: 0,\n      \nposition\n: {\n        \nlat\n: 1000,\n        \nlong\n: 5000\n      },\n      \nhargaTotal\n: 41000,\n      \nhargaService\n: 25000,\n      \nhargaJarak\n: 4000,\n      \npayment\n: \nnotPay\n,\n      \nstatus\n: \npending\n,\n      \nservice\n: [\n        {\n          \nserviceId\n: \n5747f6b7574ed62834ad0c82\n,\n          \nname\n: \nCuci2\n,\n          \nharga\n: 15000,\n          \n_id\n: \n574ab8dd8c0480541c5a57c2\n\n        },\n        {\n          \nserviceId\n: \n5747f5b9574ed62834ad0c81\n,\n          \nname\n: \nService1\n,\n          \nharga\n: 10000,\n          \n_id\n: \n574ab8dd8c0480541c5a57c1\n\n        }\n      ],\n      \nvehicle\n: {\n        \nvehicleId\n: \n57456ff36483a5e42cf6435f\n,\n        \nname\n: \nJeep1\n,\n        \nharga\n: 12000\n      }\n    },\n  ]\n}\n\n\n\n\nUpdate Order\n\n\nEndpoint:\n\n\nPUT localhost:4003/api/v1/order/574ab8dd8c0480541c5a57c0?access_token=ACCESS_TOKEN\n\n\n\n\nupdateAblefields\n : sales, tukangCuci, status(pending, onProcess, onGoing, done), payment(notPay, paid)\n\n\nRequest body example:\n\n\n{\n    \nstatus\n: \nonProcess\n\n}\n\n\n\n\nSuccessful response body example:\n\n\n{\n  \nmeta\n: {\n    \ncode\n: 200,\n    \nmessage\n: \nStatus changed\n\n  },\n  \ndata\n: {\n    \n_id\n: \n574ab8dd8c0480541c5a57c0\n,\n    \ncreatedTime\n: \n2016-05-29T16:05:10.000Z\n,\n    \nupdatedTime\n: \n2016-05-30T18:05:35.000Z\n,\n    \nuserId\n: \n57448c186fc3a9c4266ae67c\n,\n    \n__v\n: 0,\n    \nposition\n: {\n      \nlat\n: 1000,\n      \nlong\n: 5000\n    },\n    \nhargaTotal\n: 41000,\n    \nhargaService\n: 25000,\n    \nhargaJarak\n: 4000,\n    \npayment\n: \nnotPay\n,\n    \nstatus\n: \nonProcess\n,\n    \nservice\n: [\n      {\n        \nserviceId\n: \n5747f6b7574ed62834ad0c82\n,\n        \nname\n: \nCuci2\n,\n        \nharga\n: 15000,\n        \n_id\n: \n574ab8dd8c0480541c5a57c2\n\n      },\n      {\n        \nserviceId\n: \n5747f5b9574ed62834ad0c81\n,\n        \nname\n: \nService1\n,\n        \nharga\n: 10000,\n        \n_id\n: \n574ab8dd8c0480541c5a57c1\n\n      }\n    ],\n    \nvehicle\n: {\n      \nvehicleId\n: \n57456ff36483a5e42cf6435f\n,\n      \nname\n: \nJeep1\n,\n      \nharga\n: 12000\n    }\n  }\n}\n\n\n\n\nGet All Order\n\n\nEndpoint:\n\n\nGET localhost:4003/api/v1/order/all\naccess_token=ACCESS_TOKEN\n\n\n\n\nRequest Query : \n\norderBy\n : column name,\n\norderType\n : desc/asc\n\n\nSuccessful response body example:\n\n\n{\n  \nmeta\n: {\n    \ncode\n: 200,\n    \nmessage\n: \nUser Order\n\n  },\n  \ndata\n: [\n    {\n      \n_id\n: \n574ab8dd8c0480541c5a57c0\n,\n      \ncreatedTime\n: \n2016-05-29T16:05:10.000Z\n,\n      \nupdatedTime\n: \n2016-05-29T16:05:10.000Z\n,\n      \nuserId\n: \n57448c186fc3a9c4266ae67c\n,\n      \n__v\n: 0,\n      \nposition\n: {\n        \nlat\n: 1000,\n        \nlong\n: 5000\n      },\n      \nhargaTotal\n: 41000,\n      \nhargaService\n: 25000,\n      \nhargaJarak\n: 4000,\n      \npayment\n: \nnotPay\n,\n      \nstatus\n: \npending\n,\n      \nservice\n: [\n        {\n          \nserviceId\n: \n5747f6b7574ed62834ad0c82\n,\n          \nname\n: \nCuci2\n,\n          \nharga\n: 15000,\n          \n_id\n: \n574ab8dd8c0480541c5a57c2\n\n        },\n        {\n          \nserviceId\n: \n5747f5b9574ed62834ad0c81\n,\n          \nname\n: \nService1\n,\n          \nharga\n: 10000,\n          \n_id\n: \n574ab8dd8c0480541c5a57c1\n\n        }\n      ],\n      \nvehicle\n: {\n        \nvehicleId\n: \n57456ff36483a5e42cf6435f\n,\n        \nname\n: \nJeep1\n,\n        \nharga\n: 12000\n      }\n    },\n  ]\n}", 
            "title": "Order"
        }, 
        {
            "location": "/order/#order-resource", 
            "text": "Endpoint:  GET localhost:4003/api/v1/order/resource?access_token=ACCESS_TOKEN  Successful response body example:  {\n   meta : {\n     code : 200,\n     message :  Order Resource \n  },\n   data : {\n     vehicle : [\n      {\n         _id :  57456ff36483a5e42cf6435f ,\n         createdTime :  2016-05-25T16:05:15.000Z ,\n         updatedTime :  2016-05-25T16:05:15.000Z ,\n         name :  Jeep1 ,\n         harga : 12000,\n         __v : 0\n      }\n    ],\n     service : [\n      {\n         _id :  5747f6b7574ed62834ad0c82 ,\n         createdTime :  2016-05-27T14:05:26.000Z ,\n         updatedTime :  2016-05-27T14:05:26.000Z ,\n         name :  Cuci2 ,\n         harga : 15000,\n         __v : 0\n      },\n      {\n         _id :  5747f5b9574ed62834ad0c81 ,\n         name :  Service1 ,\n         harga : 10000,\n         __v : 0\n      },\n      {\n         _id :  574be53e9dd6245421640a85 ,\n         createdTime :  2016-05-30T14:05:29.000Z ,\n         updatedTime :  2016-05-30T14:05:29.000Z ,\n         name :  jeep2 ,\n         harga : 1000,\n         __v : 0\n      }\n    ]\n  }\n}", 
            "title": "Order Resource"
        }, 
        {
            "location": "/order/#add-order", 
            "text": "Endpoint:  POST localhost:4003/api/v1/absen?access_token=ACCESS_TOKEN  Request body example:  {\n     vehicle : {\n         vehicleId :  57456ff36483a5e42cf6435f ,\n         name :  Jeep1 ,\n         harga : 12000\n    },\n     service : [\n        {\n             serviceId :  5747f6b7574ed62834ad0c82 ,\n             name :  Cuci2 ,\n             harga : 15000\n        },\n        {\n             serviceId :  5747f5b9574ed62834ad0c81 ,\n             name :  Service1 ,\n             harga : 10000\n        }\n    ],\n     position : {\n         lat : 1000,\n         long : 5000\n    }\n}  Successful response body example:  {\n   meta : {\n     code : 200,\n     message :  Order saved \n  },\n   data : {\n     __v : 0,\n     userId :  57448c186fc3a9c4266ae67c ,\n     _id :  574c1ec6885fab141fd24d2a ,\n     position : {\n       lat : 1000,\n       long : 5000\n    },\n     hargaTotal : 41000,\n     hargaService : 25000,\n     hargaJarak : 4000,\n     payment :  notPay ,\n     status :  pending ,\n     service : [\n      {\n         serviceId :  5747f6b7574ed62834ad0c82 ,\n         name :  Cuci2 ,\n         harga : 15000,\n         _id :  574c1ec6885fab141fd24d2c \n      },\n      {\n         serviceId :  5747f5b9574ed62834ad0c81 ,\n         name :  Service1 ,\n         harga : 10000,\n         _id :  574c1ec6885fab141fd24d2b \n      }\n    ],\n     vehicle : {\n       vehicleId :  57456ff36483a5e42cf6435f ,\n       name :  Jeep1 ,\n       harga : 12000\n    }\n  }\n}", 
            "title": "Add Order"
        }, 
        {
            "location": "/order/#get-order", 
            "text": "Endpoint:  GET localhost:4003/api/v1/order access_token=ACCESS_TOKEN  Request Query :  limit  : number, skip  : number, status  : status  Successful response body example:  {\n   meta : {\n     code : 200,\n     message :  User Order \n  },\n   data : [\n    {\n       _id :  574ab8dd8c0480541c5a57c0 ,\n       createdTime :  2016-05-29T16:05:10.000Z ,\n       updatedTime :  2016-05-29T16:05:10.000Z ,\n       userId :  57448c186fc3a9c4266ae67c ,\n       __v : 0,\n       position : {\n         lat : 1000,\n         long : 5000\n      },\n       hargaTotal : 41000,\n       hargaService : 25000,\n       hargaJarak : 4000,\n       payment :  notPay ,\n       status :  pending ,\n       service : [\n        {\n           serviceId :  5747f6b7574ed62834ad0c82 ,\n           name :  Cuci2 ,\n           harga : 15000,\n           _id :  574ab8dd8c0480541c5a57c2 \n        },\n        {\n           serviceId :  5747f5b9574ed62834ad0c81 ,\n           name :  Service1 ,\n           harga : 10000,\n           _id :  574ab8dd8c0480541c5a57c1 \n        }\n      ],\n       vehicle : {\n         vehicleId :  57456ff36483a5e42cf6435f ,\n         name :  Jeep1 ,\n         harga : 12000\n      }\n    },\n  ]\n}", 
            "title": "Get Order"
        }, 
        {
            "location": "/order/#update-order", 
            "text": "Endpoint:  PUT localhost:4003/api/v1/order/574ab8dd8c0480541c5a57c0?access_token=ACCESS_TOKEN  updateAblefields  : sales, tukangCuci, status(pending, onProcess, onGoing, done), payment(notPay, paid)  Request body example:  {\n     status :  onProcess \n}  Successful response body example:  {\n   meta : {\n     code : 200,\n     message :  Status changed \n  },\n   data : {\n     _id :  574ab8dd8c0480541c5a57c0 ,\n     createdTime :  2016-05-29T16:05:10.000Z ,\n     updatedTime :  2016-05-30T18:05:35.000Z ,\n     userId :  57448c186fc3a9c4266ae67c ,\n     __v : 0,\n     position : {\n       lat : 1000,\n       long : 5000\n    },\n     hargaTotal : 41000,\n     hargaService : 25000,\n     hargaJarak : 4000,\n     payment :  notPay ,\n     status :  onProcess ,\n     service : [\n      {\n         serviceId :  5747f6b7574ed62834ad0c82 ,\n         name :  Cuci2 ,\n         harga : 15000,\n         _id :  574ab8dd8c0480541c5a57c2 \n      },\n      {\n         serviceId :  5747f5b9574ed62834ad0c81 ,\n         name :  Service1 ,\n         harga : 10000,\n         _id :  574ab8dd8c0480541c5a57c1 \n      }\n    ],\n     vehicle : {\n       vehicleId :  57456ff36483a5e42cf6435f ,\n       name :  Jeep1 ,\n       harga : 12000\n    }\n  }\n}", 
            "title": "Update Order"
        }, 
        {
            "location": "/order/#get-all-order", 
            "text": "Endpoint:  GET localhost:4003/api/v1/order/all access_token=ACCESS_TOKEN  Request Query :  orderBy  : column name, orderType  : desc/asc  Successful response body example:  {\n   meta : {\n     code : 200,\n     message :  User Order \n  },\n   data : [\n    {\n       _id :  574ab8dd8c0480541c5a57c0 ,\n       createdTime :  2016-05-29T16:05:10.000Z ,\n       updatedTime :  2016-05-29T16:05:10.000Z ,\n       userId :  57448c186fc3a9c4266ae67c ,\n       __v : 0,\n       position : {\n         lat : 1000,\n         long : 5000\n      },\n       hargaTotal : 41000,\n       hargaService : 25000,\n       hargaJarak : 4000,\n       payment :  notPay ,\n       status :  pending ,\n       service : [\n        {\n           serviceId :  5747f6b7574ed62834ad0c82 ,\n           name :  Cuci2 ,\n           harga : 15000,\n           _id :  574ab8dd8c0480541c5a57c2 \n        },\n        {\n           serviceId :  5747f5b9574ed62834ad0c81 ,\n           name :  Service1 ,\n           harga : 10000,\n           _id :  574ab8dd8c0480541c5a57c1 \n        }\n      ],\n       vehicle : {\n         vehicleId :  57456ff36483a5e42cf6435f ,\n         name :  Jeep1 ,\n         harga : 12000\n      }\n    },\n  ]\n}", 
            "title": "Get All Order"
        }, 
        {
            "location": "/setting/", 
            "text": "Add Setting\n\n\nEndpoint:\n\n\nPOST https://localhost:4003/api/v1/setting?access_token=ACCESS_TOKEN\n\n\n\n\nRequest body example:\n\n\n{\n    \nname\n: \ntes\n,\n    \nvalue\n: 5000\n}\n\n\n\n\nSuccessful response body example:\n\n\n{\n  \nmeta\n: {\n    \ncode\n: 200,\n    \nmessage\n: \nSetting added\n\n  },\n  \ndata\n: {\n    \n__v\n: 0,\n    \nname\n: \ntes\n,\n    \n_id\n: \n574c230265ed6c004eb221f4\n,\n    \nvalue\n: 5000\n  }\n}\n\n\n\n\nGet Setting\n\n\nEndpoint:\n\n\nGET https://localhost:4003/api/v1/setting?access_token=ACCESS_TOKEN\n\n\n\n\nSuccessful response body example:\n\n\n{\n  \nmeta\n: {\n    \ncode\n: 200,\n    \nmessage\n: \nSetting Data\n\n  },\n  \ndata\n: [\n    {\n      \n_id\n: \n5748017dfd2407c050f68c77\n,\n      \ncreatedTime\n: \n2016-05-27T15:05:37.000Z\n,\n      \nupdatedTime\n: \n2016-05-27T15:05:37.000Z\n,\n      \nname\n: \nhargaJarak\n,\n      \n__v\n: 0,\n      \nvalue\n: 1000\n    }\n  ]\n}\n\n\n\n\nUpdate Setting\n\n\nUpdateAble Fields\n : name, value\n\n\nEndpoint:\n\n\nPUT https://localhost:4003/api/v1/setting/:id?access_token=ACCESS_TOKEN\n\n\n\n\nRequest body example:\n\n\n{\n    \nname\n: \ntes1\n,\n    \nvalue\n: 1000\n}\n\n\n\n\nSuccessful response body example:\n\n\n{\n  \nmeta\n: {\n    \ncode\n: 200,\n    \nmessage\n: \nSetting updated\n\n  },\n  \ndata\n: {\n    \n_id\n: \n574c230265ed6c004eb221f4\n,\n    \nname\n: \ntes1\n,\n    \n__v\n: 0,\n    \ncreatedTime\n: \n2016-05-30T18:05:11.000Z\n,\n    \nupdatedTime\n: \n2016-05-30T18:05:11.000Z\n,\n    \nvalue\n: 1000\n  }\n}\n\n\n\n\nDelete Setting\n\n\nEndpoint:\n\n\nDELETE https://localhost:4003/api/v1/setting/:id?access_token=ACCESS_TOKEN\n\n\n\n\nSuccessful response body example:\n\n\n{\n  \nmeta\n: {\n    \ncode\n: 200,\n    \nmessage\n: \nOK\n\n  },\n  \ndata\n: \nSetting removed\n\n}", 
            "title": "Setting"
        }, 
        {
            "location": "/setting/#add-setting", 
            "text": "Endpoint:  POST https://localhost:4003/api/v1/setting?access_token=ACCESS_TOKEN  Request body example:  {\n     name :  tes ,\n     value : 5000\n}  Successful response body example:  {\n   meta : {\n     code : 200,\n     message :  Setting added \n  },\n   data : {\n     __v : 0,\n     name :  tes ,\n     _id :  574c230265ed6c004eb221f4 ,\n     value : 5000\n  }\n}", 
            "title": "Add Setting"
        }, 
        {
            "location": "/setting/#get-setting", 
            "text": "Endpoint:  GET https://localhost:4003/api/v1/setting?access_token=ACCESS_TOKEN  Successful response body example:  {\n   meta : {\n     code : 200,\n     message :  Setting Data \n  },\n   data : [\n    {\n       _id :  5748017dfd2407c050f68c77 ,\n       createdTime :  2016-05-27T15:05:37.000Z ,\n       updatedTime :  2016-05-27T15:05:37.000Z ,\n       name :  hargaJarak ,\n       __v : 0,\n       value : 1000\n    }\n  ]\n}", 
            "title": "Get Setting"
        }, 
        {
            "location": "/setting/#update-setting", 
            "text": "UpdateAble Fields  : name, value  Endpoint:  PUT https://localhost:4003/api/v1/setting/:id?access_token=ACCESS_TOKEN  Request body example:  {\n     name :  tes1 ,\n     value : 1000\n}  Successful response body example:  {\n   meta : {\n     code : 200,\n     message :  Setting updated \n  },\n   data : {\n     _id :  574c230265ed6c004eb221f4 ,\n     name :  tes1 ,\n     __v : 0,\n     createdTime :  2016-05-30T18:05:11.000Z ,\n     updatedTime :  2016-05-30T18:05:11.000Z ,\n     value : 1000\n  }\n}", 
            "title": "Update Setting"
        }, 
        {
            "location": "/setting/#delete-setting", 
            "text": "Endpoint:  DELETE https://localhost:4003/api/v1/setting/:id?access_token=ACCESS_TOKEN  Successful response body example:  {\n   meta : {\n     code : 200,\n     message :  OK \n  },\n   data :  Setting removed \n}", 
            "title": "Delete Setting"
        }
    ]
}